7 Model – STAT468 Final Project Report
…
Code

# identify points that are influential
index_inf <- which(cooks_d > cooks_thres)

influential <- final_stroke_data[index_inf,] |>
  mutate(
    cooks_d = cooks_d[index_inf]
    ) 

# examine influential points
influential

# A tibble: 27 × 30
    year tournament       match_id opponent round set   rally_phase rally_length
   <dbl> <fct>               <dbl> <fct>    <ord> <ord> <ord>              <dbl>
 1  2019 Fuzhou Open          9771 Kento M… Fina… 3     early                 32
 2  2019 Fuzhou Open          9771 Kento M… Fina… 3     early                 14
 3  2019 World Tour Fina…     8080 CHEN Lo… Grou… 1     late                  20
 4  2019 World Tour Fina…     8080 CHEN Lo… Grou… 1     late                   2
 5  2019 World Tour Fina…     8080 CHEN Lo… Grou… 1     late                   6
 6  2019 KOREA OPEN           6266 Kento M… Fina… 2     early                  9
 7  2019 Denmark Open         4627 CHEN Lo… Quar… 1     late                   6
 8  2019 Denmark Open         4627 CHEN Lo… Quar… 1     late                  16
 9  2019 Denmark Open         4627 CHEN Lo… Quar… 1     late                   2
10  2019 Denmark Open         4627 CHEN Lo… Quar… 2     mid                   19
# ℹ 17 more rows
# ℹ 22 more variables: chou_win <fct>, shot_type <fct>, backhand <fct>,
#   chou_x <dbl>, chou_y <dbl>, opp_x <dbl>, opp_y <dbl>, shuttle_x <dbl>,
#   shuttle_y <dbl>, chou_opp_vx <dbl>, chou_opp_vy <dbl>, chou_opp_dist <dbl>,
#   chou_opp_uvx <dbl>, chou_opp_uvy <dbl>, chou_opp_uvx_perp <dbl>,
#   chou_opp_uvy_perp <dbl>, chou_shuttle_vx <dbl>, chou_shuttle_vy <dbl>,
#   chou_shuttle_dist <dbl>, chou_shuttle_paral <dbl>, …
…
